Suite/Test/Step Name,Browser,Description,Tag,Start time,End time,Duration,Status
Folder Login,Chrome 113.0.0.0,,,2023-05-29 19:40:45,2023-05-29 19:41:44,59.222s,PASSED
,,,,,,,
Test Cases/Data Driven Testing/TC01 - Login Standar User,Chrome 113.0.0.0,,,2023-05-29 19:40:45,2023-05-29 19:40:52,6.810s,PASSED
"openBrowser("""")",Chrome 113.0.0.0,,,2023-05-29 19:40:46,2023-05-29 19:40:49,3.179s,PASSED
"navigateToUrl(""https://www.saucedemo.com/"")",Chrome 113.0.0.0,,,2023-05-29 19:40:49,2023-05-29 19:40:50,0.910s,PASSED
"setText(findTestObject(""Object Repository/Page_Swag Labs/input_Swag Labs_user-name""), Login)",Chrome 113.0.0.0,,,2023-05-29 19:40:50,2023-05-29 19:40:51,0.887s,PASSED
"setText(findTestObject(""Object Repository/Page_Swag Labs/input_Swag Labs_password""), Password)",Chrome 113.0.0.0,,,2023-05-29 19:40:51,2023-05-29 19:40:52,0.717s,PASSED
"click(findTestObject(""Object Repository/Page_Swag Labs/input_Swag Labs_login-button""))",Chrome 113.0.0.0,,,2023-05-29 19:40:52,2023-05-29 19:40:52,0.509s,PASSED
,,,,,,,
Test Cases/Data Driven Testing/TC01 - Login Standar User,Chrome 113.0.0.0,,,2023-05-29 19:40:52,2023-05-29 19:40:57,4.783s,PASSED
"openBrowser("""")",Chrome 113.0.0.0,,,2023-05-29 19:40:52,2023-05-29 19:40:54,1.966s,PASSED
"navigateToUrl(""https://www.saucedemo.com/"")",Chrome 113.0.0.0,,,2023-05-29 19:40:54,2023-05-29 19:40:55,0.902s,PASSED
"setText(findTestObject(""Object Repository/Page_Swag Labs/input_Swag Labs_user-name""), Login)",Chrome 113.0.0.0,,,2023-05-29 19:40:55,2023-05-29 19:40:56,0.752s,PASSED
"setText(findTestObject(""Object Repository/Page_Swag Labs/input_Swag Labs_password""), Password)",Chrome 113.0.0.0,,,2023-05-29 19:40:56,2023-05-29 19:40:56,0.708s,PASSED
"click(findTestObject(""Object Repository/Page_Swag Labs/input_Swag Labs_login-button""))",Chrome 113.0.0.0,,,2023-05-29 19:40:56,2023-05-29 19:40:57,0.439s,PASSED
,,,,,,,
Test Cases/Data Driven Testing/TC01 - Login Standar User,Chrome 113.0.0.0,,,2023-05-29 19:40:57,2023-05-29 19:41:02,4.878s,PASSED
"openBrowser("""")",Chrome 113.0.0.0,,,2023-05-29 19:40:57,2023-05-29 19:40:59,1.969s,PASSED
"navigateToUrl(""https://www.saucedemo.com/"")",Chrome 113.0.0.0,,,2023-05-29 19:40:59,2023-05-29 19:41:00,0.947s,PASSED
"setText(findTestObject(""Object Repository/Page_Swag Labs/input_Swag Labs_user-name""), Login)",Chrome 113.0.0.0,,,2023-05-29 19:41:00,2023-05-29 19:41:01,0.795s,PASSED
"setText(findTestObject(""Object Repository/Page_Swag Labs/input_Swag Labs_password""), Password)",Chrome 113.0.0.0,,,2023-05-29 19:41:01,2023-05-29 19:41:01,0.712s,PASSED
"click(findTestObject(""Object Repository/Page_Swag Labs/input_Swag Labs_login-button""))",Chrome 113.0.0.0,,,2023-05-29 19:41:01,2023-05-29 19:41:02,0.441s,PASSED
,,,,,,,
Test Cases/Data Driven Testing/TC01 - Login Standar User,Chrome 113.0.0.0,,,2023-05-29 19:41:02,2023-05-29 19:41:12,9.835s,PASSED
"openBrowser("""")",Chrome 113.0.0.0,,,2023-05-29 19:41:02,2023-05-29 19:41:04,2.043s,PASSED
"navigateToUrl(""https://www.saucedemo.com/"")",Chrome 113.0.0.0,,,2023-05-29 19:41:04,2023-05-29 19:41:05,0.809s,PASSED
"setText(findTestObject(""Object Repository/Page_Swag Labs/input_Swag Labs_user-name""), Login)",Chrome 113.0.0.0,,,2023-05-29 19:41:05,2023-05-29 19:41:06,0.787s,PASSED
"setText(findTestObject(""Object Repository/Page_Swag Labs/input_Swag Labs_password""), Password)",Chrome 113.0.0.0,,,2023-05-29 19:41:06,2023-05-29 19:41:06,0.716s,PASSED
"click(findTestObject(""Object Repository/Page_Swag Labs/input_Swag Labs_login-button""))",Chrome 113.0.0.0,,,2023-05-29 19:41:06,2023-05-29 19:41:12,5.462s,PASSED
,,,,,,,
Test Cases/Data Driven Testing/TC01 - Login Standar User,Chrome 113.0.0.0,,,2023-05-29 19:41:12,2023-05-29 19:41:17,4.831s,PASSED
"openBrowser("""")",Chrome 113.0.0.0,,,2023-05-29 19:41:12,2023-05-29 19:41:14,2.010s,PASSED
"navigateToUrl(""https://www.saucedemo.com/"")",Chrome 113.0.0.0,,,2023-05-29 19:41:14,2023-05-29 19:41:15,0.929s,PASSED
"setText(findTestObject(""Object Repository/Page_Swag Labs/input_Swag Labs_user-name""), Login)",Chrome 113.0.0.0,,,2023-05-29 19:41:15,2023-05-29 19:41:16,0.751s,PASSED
"setText(findTestObject(""Object Repository/Page_Swag Labs/input_Swag Labs_password""), Password)",Chrome 113.0.0.0,,,2023-05-29 19:41:16,2023-05-29 19:41:16,0.727s,PASSED
"click(findTestObject(""Object Repository/Page_Swag Labs/input_Swag Labs_login-button""))",Chrome 113.0.0.0,,,2023-05-29 19:41:16,2023-05-29 19:41:17,0.403s,PASSED
,,,,,,,
Test Cases/Data Driven Testing/TC03 - Login Locked User,Chrome 113.0.0.0,,,2023-05-29 19:41:17,2023-05-29 19:41:22,5.662s,PASSED
"openBrowser("""")",Chrome 113.0.0.0,,,2023-05-29 19:41:17,2023-05-29 19:41:20,2.617s,PASSED
"navigateToUrl(""https://www.saucedemo.com/"")",Chrome 113.0.0.0,,,2023-05-29 19:41:20,2023-05-29 19:41:21,0.825s,PASSED
"setText(findTestObject(""Object Repository/Page_Swag Labs/input_Swag Labs_user-name""), ""problem_user"")",Chrome 113.0.0.0,,,2023-05-29 19:41:21,2023-05-29 19:41:21,0.829s,PASSED
"setEncryptedText(findTestObject(""Object Repository/Page_Swag Labs/input_Swag Labs_password""), ""niky7nTHOFjWhsWJFf51VA=="")",Chrome 113.0.0.0,,,2023-05-29 19:41:21,2023-05-29 19:41:22,0.495s,PASSED
"click(findTestObject(""Object Repository/Page_Swag Labs/input_Swag Labs_login-button""))",Chrome 113.0.0.0,,,2023-05-29 19:41:22,2023-05-29 19:41:22,0.423s,PASSED
,,,,,,,
Test Cases/Data Driven Testing/TC04 - Login Problem User,Chrome 113.0.0.0,,,2023-05-29 19:41:22,2023-05-29 19:41:28,5.691s,PASSED
"openBrowser("""")",Chrome 113.0.0.0,,,2023-05-29 19:41:23,2023-05-29 19:41:26,2.713s,PASSED
"navigateToUrl(""https://www.saucedemo.com/"")",Chrome 113.0.0.0,,,2023-05-29 19:41:26,2023-05-29 19:41:26,0.777s,PASSED
"setText(findTestObject(""Object Repository/Page_Swag Labs/input_Swag Labs_user-name""), ""problem_user"")",Chrome 113.0.0.0,,,2023-05-29 19:41:26,2023-05-29 19:41:27,0.784s,PASSED
"setEncryptedText(findTestObject(""Object Repository/Page_Swag Labs/input_Swag Labs_password""), ""qcu24s4901FyWDTwXGr6XA=="")",Chrome 113.0.0.0,,,2023-05-29 19:41:27,2023-05-29 19:41:28,0.429s,PASSED
"click(findTestObject(""Object Repository/Page_Swag Labs/input_Swag Labs_login-button""))",Chrome 113.0.0.0,,,2023-05-29 19:41:28,2023-05-29 19:41:28,0.472s,PASSED
,,,,,,,
Test Cases/Data Driven Testing/TC05 - Login Glitch User,Chrome 113.0.0.0,,,2023-05-29 19:41:28,2023-05-29 19:41:38,9.974s,PASSED
"openBrowser("""")",Chrome 113.0.0.0,,,2023-05-29 19:41:29,2023-05-29 19:41:30,1.912s,PASSED
"navigateToUrl(""https://www.saucedemo.com/"")",Chrome 113.0.0.0,,,2023-05-29 19:41:30,2023-05-29 19:41:31,0.854s,PASSED
"setText(findTestObject(""Object Repository/Page_Swag Labs/input_Swag Labs_user-name""), ""performance_glitch_user"")",Chrome 113.0.0.0,,,2023-05-29 19:41:31,2023-05-29 19:41:32,0.749s,PASSED
"setEncryptedText(findTestObject(""Object Repository/Page_Swag Labs/input_Swag Labs_password""), ""qcu24s4901FyWDTwXGr6XA=="")",Chrome 113.0.0.0,,,2023-05-29 19:41:32,2023-05-29 19:41:32,0.442s,PASSED
"click(findTestObject(""Object Repository/Page_Swag Labs/input_Swag Labs_login-button""))",Chrome 113.0.0.0,,,2023-05-29 19:41:32,2023-05-29 19:41:38,5.515s,PASSED
,,,,,,,
Test Cases/Data Driven Testing/TC02 - Logout,Chrome 113.0.0.0,,,2023-05-29 19:41:38,2023-05-29 19:41:44,5.927s,PASSED
"openBrowser("""")",Chrome 113.0.0.0,,,2023-05-29 19:41:39,2023-05-29 19:41:41,2.040s,PASSED
"navigateToUrl(""https://www.saucedemo.com/"")",Chrome 113.0.0.0,,,2023-05-29 19:41:41,2023-05-29 19:41:41,0.840s,PASSED
"setText(findTestObject(""Object Repository/Page_Swag Labs/input_Swag Labs_user-name""), ""standard_user"")",Chrome 113.0.0.0,,,2023-05-29 19:41:41,2023-05-29 19:41:42,0.762s,PASSED
"setEncryptedText(findTestObject(""Object Repository/Page_Swag Labs/input_Swag Labs_password""), ""qcu24s4901FyWDTwXGr6XA=="")",Chrome 113.0.0.0,,,2023-05-29 19:41:42,2023-05-29 19:41:43,0.434s,PASSED
"click(findTestObject(""Object Repository/Page_Swag Labs/input_Swag Labs_login-button""))",Chrome 113.0.0.0,,,2023-05-29 19:41:43,2023-05-29 19:41:43,0.467s,PASSED
"click(findTestObject(""Object Repository/Page_Swag Labs/button_Open Menu""))",Chrome 113.0.0.0,,,2023-05-29 19:41:43,2023-05-29 19:41:43,0.451s,PASSED
"click(findTestObject(""Object Repository/Page_Swag Labs/btn_Logout""))",Chrome 113.0.0.0,,,2023-05-29 19:41:43,2023-05-29 19:41:44,0.438s,PASSED
